…
```r
devtools::install_github("kleinschmidt/healdvowels")
```

## Use

Because of human subjects protections, only aggregate summaries of vowel
formants are included, in the form of means and covariance matrices for each
vowel, conditioned on:

  * Time of day:

    ``` r
    healdvowels::by_time
    #> # A tibble: 21 x 4
    #>    Vowel  Time      model Vowel_ascii
    #>    <chr> <chr>     <list>       <chr>
    #>  1     æ    t1 <list [2]>          AE
    #>  2     æ    t2 <list [2]>          AE
    #>  3     æ    t3 <list [2]>          AE
    #>  4     ɑ    t1 <list [2]>          AH
    #>  5     ɑ    t2 <list [2]>          AH
    #>  6     ɑ    t3 <list [2]>          AH
    #>  7     i    t1 <list [2]>          EE
    #>  8     i    t2 <list [2]>          EE
    #>  9     i    t3 <list [2]>          EE
    #> 10     ɛ    t1 <list [2]>          EH
    #> # ... with 11 more rows
    ```
    
  * Speaker

    ``` r
    healdvowels::by_speaker
    #> # A tibble: 56 x 4
    #>    Speaker Vowel      model Vowel_ascii
    #>      <chr> <chr>     <list>       <chr>
    #>  1       1     æ <list [2]>          AE
    #>  2       1     ɑ <list [2]>          AH
    #>  3       1     i <list [2]>          EE
    #>  4       1     ɛ <list [2]>          EH
    #>  5       1     ɪ <list [2]>          IH
    #>  6       1     u <list [2]>          OO
    #>  7       1     ʌ <list [2]>          UH
    #>  8       2     æ <list [2]>          AE
    #>  9       2     ɑ <list [2]>          AH
    #> 10       2     i <list [2]>          EE
    #> # ... with 46 more rows
    ```

  * Speaker and time of day joinly
  
    ``` r
    healdvowels::by_speaker_time
    #> # A tibble: 168 x 5
    #>    Vowel Speaker  Time      model Vowel_ascii
    #>    <chr>   <chr> <chr>     <list>       <chr>
    #>  1     æ       1    t1 <list [2]>          AE
    #>  2     æ       1    t2 <list [2]>          AE
    #>  3     æ       1    t3 <list [2]>          AE
    #>  4     æ       2    t1 <list [2]>          AE
    #>  5     æ       2    t2 <list [2]>          AE
    #>  6     æ       2    t3 <list [2]>          AE
    #>  7     æ       3    t1 <list [2]>          AE
    #>  8     æ       3    t2 <list [2]>          AE
    #>  9     æ       3    t3 <list [2]>          AE
    #> 10     æ       4    t1 <list [2]>          AE
    #> # ... with 158 more rows
    ```
…
